{
    "chars": [
    ],
    "jet_int_variables": [
        "HadronConeExclTruthLabelID",
        "HadronConeExclExtendedTruthLabelID",
        "jetPtRank"
    ],
    "floats": [
        "pt_btagJes",
        "eta_btagJes",
        "absEta_btagJes"
    ],
    "doubles": [],
    "jet_floats": [
        "GhostBHadronsFinalPt",
        "bTagJVT"
    ],
    "ints_as_float": [
    ],
    "event": [
        "mcEventWeight",
        "eventNumber",
        "averageInteractionsPerCrossing",
        "actualInteractionsPerCrossing",
        "nPrimaryVertices"
    ]
}
