{
    "uchars": [
        "numberOfInnermostPixelLayerHits",
        "numberOfNextToInnermostPixelLayerHits",
        "numberOfInnermostPixelLayerSharedHits",
        "numberOfInnermostPixelLayerSplitHits",
        "numberOfPixelHits",
        "numberOfPixelHoles",
        "numberOfPixelSharedHits",
        "numberOfPixelSplitHits",
        "numberOfSCTHits",
        "numberOfSCTHoles",
        "numberOfSCTSharedHits",
        "expectNextToInnermostPixelLayerHit",
        "expectInnermostPixelLayerHit"
    ],
    "floats": [
        "chiSquared",
        "numberDoF",
        "radiusOfFirstHit",
        "theta",
        "qOverP"
    ],
    "customs": [
        "d0",
        "z0SinTheta",
        "d0Uncertainty",
        "z0SinThetaUncertainty",
        "IP3D_signed_d0",
        "IP2D_signed_d0",
        "IP3D_signed_z0",
        "IP3D_signed_d0_significance",
        "IP3D_signed_z0_significance",
        "pt",
        "eta",
        "phiUncertainty",
        "thetaUncertainty",
        "qOverPUncertainty",
        "deta",
        "dphi",
        "dr",
        "ptfrac",
        "z0RelativeToBeamspot",
        "z0RelativeToBeamspotUncertainty"
    ]
}
