{
    "file": "single-btag-variables.json",
    "chars": [
        "softMuon_isDefaults",
        "rnnip_isDefaults"
    ],
    "jet_int_variables": [
        "LeptonDecayLabel",
        "n_truth_promptLepton"
    ],
    "jet_floats": [
        "HadronConeExclTruthLabelPt"
    ],
    "floats": [
        "SV1_correctSignificance3d",
        "softMuon_pt",
        "softMuon_dR",
        "softMuon_eta",
        "softMuon_phi",
        "softMuon_qOverPratio",
        "softMuon_momentumBalanceSignificance",
        "softMuon_scatteringNeighbourSignificance",
        "softMuon_pTrel",
        "softMuon_ip3dD0",
        "softMuon_ip3dZ0",
        "softMuon_ip3dD0Significance",
        "softMuon_ip3dZ0Significance",
        "softMuon_ip3dD0Uncertainty",
        "softMuon_ip3dZ0Uncertainty",
        "JetFitterFlip_energyFraction",
        "JetFitterFlip_mass",
        "JetFitterFlip_significance3d",
        "JetFitterFlip_deltaphi",
        "JetFitterFlip_deltaeta",
        "JetFitterFlip_massUncorr",
        "JetFitterFlip_dRFlightDir",
        "rnnip_pu",
        "rnnip_pc",
        "rnnip_pb",
        "rnnipflip_pb",
        "rnnipflip_pc",
        "rnnipflip_pu",
        "rnnipflip_ptau",
        "DL1r_pu",
        "DL1r_pc",
        "DL1r_pb",
        "DL1r20210824r22_pb",
        "DL1r20210824r22_pc",
        "DL1r20210824r22_pu",
        "dips20210729_pb",
        "dips20210729_pc",
        "dips20210729_pu",
        "dipsLoose20210729_pb",
        "dipsLoose20210729_pc",
        "dipsLoose20210729_pu",
        "dipsLoose20220314v2_pb",
        "dipsLoose20220314v2_pc",
        "dipsLoose20220314v2_pu",
        "dips20210729flip_pb",
        "dips20210729flip_pc",
        "dips20210729flip_pu",
        "dipsLoose20210729flip_pb",
        "dipsLoose20210729flip_pc",
        "dipsLoose20210729flip_pu",
        "DL1dv00_pu",
        "DL1dv00_pc",
        "DL1dv00_pb",
        "DL1d20210528r22_pb",
        "DL1d20210528r22_pc",
        "DL1d20210528r22_pu",
        "DL1d20210824r22_pb",
        "DL1d20210824r22_pc",
        "DL1d20210824r22_pu",
        "UMAMI20210506r22_pu",
        "UMAMI20210506r22_pc",
        "UMAMI20210506r22_pb",
        "dips_UMAMI20210506r22_pu",
        "dips_UMAMI20210506r22_pc",
        "dips_UMAMI20210506r22_pb"
    ],
    "ints_as_float": [
        "JetFitterFlip_nVTX",
        "JetFitterFlip_nSingleTracks",
        "JetFitterFlip_nTracksAtVtx",
        "JetFitterFlip_N2Tpair"
    ],
    "event": [
        "beamSpotWeight"
    ]
}
