{
    "jet_collection": "AntiKt4EMPFlowJets",
    "calibration": {
    },
    "selection": {
        "minimum_jet_pt": 20000,
        "maximum_jet_absolute_eta": 2.5,
        "minimum_jvt": 0.5
    },
    "vertex_collection": "PrimaryVertices",
    "dl2_configs": [
    ],
    "variables": {
        "btag": {
            "chars": [
                "IP2D_isDefaults",
                "IP3D_isDefaults",
                "JetFitter_isDefaults",
                "SV1_isDefaults",
                "JetFitterSecondaryVertex_isDefaults"
            ],
            "jet_int_variables": [
                "jetPtRank",
                "n_tracks_loose"
            ],
            "floats": [
                "pt_btagJes",
                "eta_btagJes",
                "absEta_btagJes",
                "JetFitter_energyFraction",
                "JetFitter_mass",
                "JetFitter_significance3d",
                "JetFitter_deltaphi",
                "JetFitter_deltaeta",
                "JetFitter_massUncorr",
                "JetFitter_dRFlightDir",
                "SV1_masssvx",
                "SV1_efracsvx",
                "SV1_significance3d",
                "SV1_dstToMatLay",
                "SV1_deltaR",
                "SV1_Lxy",
                "SV1_L3d",
                "JetFitter_deltaR",
                "JetFitterSecondaryVertex_displacement3d",
                "JetFitterSecondaryVertex_displacement2d",
                "JetFitterSecondaryVertex_mass",
                "JetFitterSecondaryVertex_energy",
                "JetFitterSecondaryVertex_energyFraction",
                "JetFitterSecondaryVertex_minimumTrackRelativeEta",
                "JetFitterSecondaryVertex_maximumTrackRelativeEta",
                "JetFitterSecondaryVertex_averageTrackRelativeEta",
                "JetFitterSecondaryVertex_maximumAllJetTrackRelativeEta",
                "JetFitterSecondaryVertex_minimumAllJetTrackRelativeEta",
                "JetFitterSecondaryVertex_averageAllJetTrackRelativeEta",
                "IP2D_pu",
                "IP2D_pc",
                "IP2D_pb",
                "IP3D_pu",
                "IP3D_pc",
                "IP3D_pb",
                "IP2D_cu",
                "IP2D_bu",
                "IP2D_bc",
                "IP3D_cu",
                "IP3D_bu",
                "IP3D_bc"
            ],
            "doubles": [],
            "jet_floats": [
                "bTagJVT",
                "pt",
                "eta",
                "mass",
                "energy"
            ],
            "ints_as_float": [
                "JetFitter_nVTX",
                "JetFitter_nSingleTracks",
                "JetFitter_nTracksAtVtx",
                "JetFitter_N2Tpair",
                "SV1_N2Tpair",
                "SV1_NGTinSvx",
                "JetFitterSecondaryVertex_nTracks",
                "IP2D_nTrks",
                "IP3D_nTrks"
            ],
            "event": [
                "eventNumber",
                "averageInteractionsPerCrossing",
                "actualInteractionsPerCrossing",
                "nPrimaryVertices"
            ],
            "jet_int_variables": [
            ]
        },
        "default_mapping": {
            "file": "fragments/default-mapping.json"
        }
    },
    "tracks": [
    ],
    "truths": [
    ],
    "decorate": {
        "jet_aug": false,
        "btag_jes": true
    },
    "btagging_link": "btaggingLink"
}
