{
    "jet_collection": "AntiKt4EMPFlowJets",
    "calibration": {
        "file": "fragments/pflow-calibration.json"
    },
    "selection": {
        "file": "fragments/pflow-selection.json"
    },
    "vertex_collection": "PrimaryVertices",
    "dl2_configs": [],
    "variables": {
        "btag": {
            "file": "fragments/single-btag-variables.json",
            "chars": [
                "rnnip_isDefaults"
            ],
            "floats": [
                "rnnip_pu",
                "rnnip_pc",
                "rnnip_pb",
                "DL1r_pu",
                "DL1r_pc",
                "DL1r_pb",
                "dipsLoose20210729_pb",
                "dipsLoose20210729_pc",
                "dipsLoose20210729_pu",
                "DL1dv00_pu",
                "DL1dv00_pc",
                "DL1dv00_pb"
            ]
        },
        "default_mapping": {
            "file": "fragments/default-mapping.json"
        }
    },
    "tracks": [],
    "truths": [
        {
            "file": "fragments/overlap-leptons.json"
        }
    ],
    "decorate": {
        "jet_aug": false,
        "btag_jes": true,
        "soft_muon": false,
        "track_truth_info": false,
        "track_sv_info": false,
        "track_lepton_id": false
    },
    "btagging_link": "btaggingLink"
}
