{
    "jet_collection": "AntiKt4EMPFlowJets",
    "calibration": {
        "file": "fragments/pflow-calibration.json"
    },
    "selection": {
        "file": "fragments/pflow-selection.json"
    },
    "vertex_collection": "PrimaryVertices",
    "btagging_link": "newBtaggingLink",
    "dl2_configs": [],
    "variables": {
        "btag": {
            "jet_int_variables": [
                "HadronConeExclTruthLabelID",
                "HadronConeExclExtendedTruthLabelID",
                "jetPtRank",
                "n_tracks_from_jet"
            ],
            "jet_chars": [
                "TracksForMinimalJetTagOverPtThreshold"
            ],
            "floats": [
                "pt_btagJes",
                "eta_btagJes",
                "absEta_btagJes",
                "dips_pb",
                "dips_pc",
                "dips_pu"
            ],
            "jet_floats": [
                "GhostBHadronsFinalPt",
                "bTagJVT",
                "dipsOnJet_pb",
                "dipsOnJet_pc",
                "dipsOnJet_pu"
            ],
            "event": [
                "mcEventWeight",
                "eventNumber",
                "averageInteractionsPerCrossing",
                "actualInteractionsPerCrossing",
                "nPrimaryVertices"
            ]
        },
        "default_mapping": {
            "file": "fragments/default-mapping.json"
        }
    },
    "tracks": [
        {
            "ip_prefix": "simpleIp_",
            "n_to_save": 40,
            "selection": {
                "file": "fragments/ip3d-loose-track-cuts.json"
            },
            "sort_order": "abs_beamspot_d0",
            "btagging_link": "newBtaggingLink",
            "input_name": "BTagTrackToJetAssociator",
            "output_name": "tracks",
            "variables": {
                "uchars": [
                    "numberOfPixelHits",
                    "numberOfPixelHoles",
                    "numberOfSCTHits",
                    "numberOfSCTHoles"
                ],
                "customs": [
                    "d0",
                    "d0Uncertainty",
                    "z0SinTheta",
                    "z0SinThetaUncertainty",
                    "pt",
                    "eta"
                ]
            }
        },
        {
            "ip_prefix": "poboyIp_",
            "n_to_save": 40,
            "selection": {
                "file": "fragments/ip3d-loose-track-cuts.json"
            },
            "sort_order": "abs_beamspot_d0",
            "btagging_link": "",
            "input_name": "TracksForMinimalJetTag",
            "output_name": "tracks_from_jet",
            "variables": {
                "uchars": [
                    "numberOfPixelHits",
                    "numberOfPixelHoles",
                    "numberOfSCTHits",
                    "numberOfSCTHoles"
                ],
                "customs": [
                    "d0",
                    "d0Uncertainty",
                    "z0SinTheta",
                    "z0SinThetaUncertainty",
                    "pt",
                    "eta"
                ]
            }
        }
    ],
    "truths": [
        {
            "file": "fragments/overlap-leptons.json"
        }
    ],
    "decorate": {
        "jet_aug": false,
        "btag_jes": true,
        "soft_muon": false,
        "track_truth_info": false,
        "track_sv_info": false,
        "track_lepton_id": false
    }
}
