{
    "jet_collection": "tempJets",
    "calibration": {},
    "selection": {
        "minimum_jet_pt": 20000,
        "maximum_jet_absolute_eta": 2.5
    },
    "vertex_collection": "HLT_IDVertex_FS",
    "dl2_configs": [
        {
            "nn_file_path": "dev/BTagging/20210517/dipsLoose/antikt4empflow/network.json",
            "remapping": {
                "BTagTrackToJetAssociator": "FsTracks",
                "dipsLoose20210517_pb": "dipsLoose20210517FsTracks_pb",
                "dipsLoose20210517_pc": "dipsLoose20210517FsTracks_pc",
                "dipsLoose20210517_pu": "dipsLoose20210517FsTracks_pu"
            }
        },
        {
            "nn_file_path": "dev/BTagging/20210517/dipsLoose/antikt4empflow/network.json",
            "remapping": {
                "BTagTrackToJetAssociator": "FsTracks",
                "btagIp_": "poboyIp_",
                "dipsLoose20210517_pb": "dipsLoose20210517SimpleIp_pb",
                "dipsLoose20210517_pc": "dipsLoose20210517SimpleIp_pc",
                "dipsLoose20210517_pu": "dipsLoose20210517SimpleIp_pu"
            }
        },
        {
            "nn_file_path": "BTagging/20210729/dipsLoose/antikt4empflow/network.json",
            "remapping": {}
        },
        {
            "nn_file_path": "BTagging/20210824r22/dl1dLoose/antikt4empflow/network.json",
            "remapping": {}
        },
        {
            "nn_file_path": "BTagging/20210729/dipsLoose/antikt4empflow/network.json",
            "remapping": {
                "BTagTrackToJetAssociator": "FsTracks",
                "dipsLoose20210729_pb": "dipsLoose20210729FsTracks_pb",
                "dipsLoose20210729_pc": "dipsLoose20210729FsTracks_pc",
                "dipsLoose20210729_pu": "dipsLoose20210729FsTracks_pu"
            }
        },
        {
            "nn_file_path": "BTagging/20210729/dipsLoose/antikt4empflow/network.json",
            "remapping": {
                "BTagTrackToJetAssociator": "FsTracks",
                "btagIp_": "poboyIp_",
                "dipsLoose20210729_pb": "dipsLoose20210729SimpleIp_pb",
                "dipsLoose20210729_pc": "dipsLoose20210729SimpleIp_pc",
                "dipsLoose20210729_pu": "dipsLoose20210729SimpleIp_pu"
            }
        },
        {
            "nn_file_path": "dev/BTagging/20211216trig/dips/AntiKt4EMPFlow/network.json",
            "remapping": {}
        },
        {
            "nn_file_path": "dev/BTagging/20211216trig/dl1d/AntiKt4EMPFlow/network.json",
            "remapping": {}
        }
    ],
    "variables": {
        "btag": {
            "file": "fragments/trigger-variables.json",
            "floats": [
                "dipsLoose20210517FsTracks_pb",
                "dipsLoose20210517FsTracks_pc",
                "dipsLoose20210517FsTracks_pu",
                "dipsLoose20210517SimpleIp_pb",
                "dipsLoose20210517SimpleIp_pc",
                "dipsLoose20210517SimpleIp_pu",
                "dipsLoose20210729_pb",
                "dipsLoose20210729_pc",
                "dipsLoose20210729_pu",
                "DL1dv00_pb",
                "DL1dv00_pc",
                "DL1dv00_pu",
                "dipsLoose20210729FsTracks_pb",
                "dipsLoose20210729FsTracks_pc",
                "dipsLoose20210729FsTracks_pu",
                "dipsLoose20210729SimpleIp_pb",
                "dipsLoose20210729SimpleIp_pc",
                "dipsLoose20210729SimpleIp_pu",
                "dips20211116_pb",
                "dips20211116_pc",
                "dips20211116_pu",
                "DL1d20211216_pb",
                "DL1d20211216_pc",
                "DL1d20211216_pu"
            ]
        },
        "default_mapping": {
            "file": "fragments/default-mapping.json"
        }
    },
    "tracks": [
        {
            "n_to_save": 40,
            "selection": {
                "file": "fragments/ip3d-loose-track-cuts.json"
            },
            "sort_order": "d0_significance",
            "btagging_link": "btaggingLink",
            "input_name": "BTagTrackToJetAssociator",
            "output_name": "tracks",
            "variables": {
                "file": "fragments/single-btag-track-variables.json"
            },
            "ip_prefix": "btagIp_"
        },
        {
            "n_to_save": 40,
            "selection": {
                "file": "fragments/ip3d-loose-track-cuts.json",
                "d0_maximum": null,
                "z0_maximum": null,
                "pix_holes_maximum": 5
            },
            "sort_order": "abs_beamspot_d0",
            "btagging_link": "btaggingLink",
            "input_name": "FsTracks",
            "output_name": "fs_tracks",
            "variables": {
                "file": "fragments/single-btag-track-variables.json"
            },
            "ip_prefix": "btagIp_"
        },
        {
            "n_to_save": 40,
            "selection": {
                "file": "fragments/ip3d-loose-track-cuts.json",
                "d0_maximum": null,
                "z0_maximum": null,
                "pix_holes_maximum": 5
            },
            "sort_order": "abs_beamspot_d0",
            "btagging_link": "btaggingLink",
            "input_name": "FsTracks",
            "output_name": "fs_tracks_simple_ip",
            "variables": {
                "file": "fragments/single-btag-track-variables.json"
            },
            "ip_prefix": "poboyIp_"
        }
    ],
    "truths": [
        {
            "file": "fragments/overlap-leptons.json"
        }
    ],
    "decorate": {
        "jet_aug": false,
        "btag_jes": true,
        "soft_muon": false,
        "track_truth_info": false,
        "track_sv_info": false,
        "track_lepton_id": false
    },
    "btagging_link": "btaggingLink"
}
